
{
    "${proxy.name}@claro.com.gt": [
        {
            "apiProducts": [
                "${proxy.name}-apiProduct"
            ],
            "callbackUrl": "",
            "name": "${proxy.name}-developerApp",
            "scopes": [],
            "attributes": [
                {
                  "name": "DisplayName",
                  "value": "${proxy.name}-developerApp"
                },
                {
                  "name": "accessTokenTTLSeconds",
                  "value": "3600"
                }
              ]
        }
    ]
}